{
    "Meta Data": {
        "1. Information": "Daily Prices (open, high, low, close) and Volumes",
        "2. Symbol": "ALGS",
        "3. Last Refreshed": "2020-12-18",
        "4. Output Size": "Compact",
        "5. Time Zone": "US/Eastern"
    },
    "Time Series (Daily)": {
        "2020-12-18": {
            "1. open": "25.2500",
            "2. high": "26.4700",
            "3. low": "24.3100",
            "4. close": "25.6700",
            "5. volume": "2039694"
        },
        "2020-12-17": {
            "1. open": "24.3700",
            "2. high": "25.7500",
            "3. low": "22.1700",
            "4. close": "24.9100",
            "5. volume": "539729"
        },
        "2020-12-16": {
            "1. open": "22.7200",
            "2. high": "26.3100",
            "3. low": "22.5100",
            "4. close": "24.1600",
            "5. volume": "506991"
        },
        "2020-12-15": {
            "1. open": "23.8400",
            "2. high": "25.6959",
            "3. low": "22.8000",
            "4. close": "22.8900",
            "5. volume": "219464"
        },
        "2020-12-14": {
            "1. open": "22.3100",
            "2. high": "28.6900",
            "3. low": "21.9364",
            "4. close": "23.8000",
            "5. volume": "412470"
        },
        "2020-12-11": {
            "1. open": "19.9100",
            "2. high": "22.4500",
            "3. low": "19.0100",
            "4. close": "22.1200",
            "5. volume": "109172"
        },
        "2020-12-10": {
            "1. open": "19.7100",
            "2. high": "20.5300",
            "3. low": "19.0101",
            "4. close": "20.1700",
            "5. volume": "101035"
        },
        "2020-12-09": {
            "1. open": "19.9000",
            "2. high": "21.0183",
            "3. low": "19.5800",
            "4. close": "19.8200",
            "5. volume": "131073"
        },
        "2020-12-08": {
            "1. open": "19.1200",
            "2. high": "21.2400",
            "3. low": "19.0650",
            "4. close": "19.9600",
            "5. volume": "255638"
        },
        "2020-12-07": {
            "1. open": "17.2400",
            "2. high": "19.5000",
            "3. low": "17.2400",
            "4. close": "18.7900",
            "5. volume": "299371"
        },
        "2020-12-04": {
            "1. open": "17.2300",
            "2. high": "17.4900",
            "3. low": "16.6700",
            "4. close": "17.1800",
            "5. volume": "155013"
        },
        "2020-12-03": {
            "1. open": "18.0000",
            "2. high": "18.9400",
            "3. low": "16.3700",
            "4. close": "16.9100",
            "5. volume": "140136"
        },
        "2020-12-02": {
            "1. open": "16.4600",
            "2. high": "19.1599",
            "3. low": "16.3900",
            "4. close": "17.7100",
            "5. volume": "130293"
        },
        "2020-12-01": {
            "1. open": "18.8900",
            "2. high": "19.5700",
            "3. low": "15.3900",
            "4. close": "16.1800",
            "5. volume": "192054"
        },
        "2020-11-30": {
            "1. open": "18.1400",
            "2. high": "18.9500",
            "3. low": "17.5000",
            "4. close": "18.7100",
            "5. volume": "81593"
        },
        "2020-11-27": {
            "1. open": "18.3000",
            "2. high": "18.3400",
            "3. low": "17.5100",
            "4. close": "18.1600",
            "5. volume": "22476"
        },
        "2020-11-25": {
            "1. open": "18.0400",
            "2. high": "18.6599",
            "3. low": "17.7100",
            "4. close": "17.9500",
            "5. volume": "33017"
        },
        "2020-11-24": {
            "1. open": "19.1300",
            "2. high": "19.5700",
            "3. low": "17.5100",
            "4. close": "18.0000",
            "5. volume": "65541"
        },
        "2020-11-23": {
            "1. open": "19.5200",
            "2. high": "20.0800",
            "3. low": "18.5000",
            "4. close": "19.1200",
            "5. volume": "121057"
        },
        "2020-11-20": {
            "1. open": "20.0900",
            "2. high": "21.0316",
            "3. low": "19.2500",
            "4. close": "19.4700",
            "5. volume": "144022"
        },
        "2020-11-19": {
            "1. open": "20.4900",
            "2. high": "22.5000",
            "3. low": "19.8000",
            "4. close": "19.9000",
            "5. volume": "445260"
        },
        "2020-11-18": {
            "1. open": "20.0200",
            "2. high": "20.9300",
            "3. low": "18.8100",
            "4. close": "20.0100",
            "5. volume": "148707"
        },
        "2020-11-17": {
            "1. open": "20.7000",
            "2. high": "20.8300",
            "3. low": "19.5650",
            "4. close": "20.0000",
            "5. volume": "130212"
        },
        "2020-11-16": {
            "1. open": "19.7200",
            "2. high": "21.1299",
            "3. low": "19.7200",
            "4. close": "20.9100",
            "5. volume": "121192"
        },
        "2020-11-13": {
            "1. open": "17.0200",
            "2. high": "19.7100",
            "3. low": "16.6006",
            "4. close": "19.7000",
            "5. volume": "128508"
        },
        "2020-11-12": {
            "1. open": "17.2500",
            "2. high": "18.2500",
            "3. low": "16.2240",
            "4. close": "17.0200",
            "5. volume": "118096"
        },
        "2020-11-11": {
            "1. open": "16.3900",
            "2. high": "17.9100",
            "3. low": "15.8100",
            "4. close": "17.1700",
            "5. volume": "171011"
        },
        "2020-11-10": {
            "1. open": "18.2700",
            "2. high": "18.2700",
            "3. low": "15.9100",
            "4. close": "16.0400",
            "5. volume": "156700"
        },
        "2020-11-09": {
            "1. open": "15.3400",
            "2. high": "18.3350",
            "3. low": "14.6100",
            "4. close": "17.9800",
            "5. volume": "267887"
        },
        "2020-11-06": {
            "1. open": "14.8000",
            "2. high": "16.0999",
            "3. low": "14.2400",
            "4. close": "15.0900",
            "5. volume": "184223"
        },
        "2020-11-05": {
            "1. open": "15.8700",
            "2. high": "16.4000",
            "3. low": "14.3700",
            "4. close": "14.6400",
            "5. volume": "169012"
        },
        "2020-11-04": {
            "1. open": "15.0600",
            "2. high": "16.9900",
            "3. low": "14.6800",
            "4. close": "15.5500",
            "5. volume": "255837"
        },
        "2020-11-03": {
            "1. open": "15.0000",
            "2. high": "15.2450",
            "3. low": "14.5050",
            "4. close": "15.0000",
            "5. volume": "95565"
        },
        "2020-11-02": {
            "1. open": "14.9300",
            "2. high": "15.4100",
            "3. low": "14.1700",
            "4. close": "15.0000",
            "5. volume": "146445"
        },
        "2020-10-30": {
            "1. open": "14.7600",
            "2. high": "15.6600",
            "3. low": "14.1782",
            "4. close": "14.9400",
            "5. volume": "87017"
        },
        "2020-10-29": {
            "1. open": "15.2300",
            "2. high": "15.7000",
            "3. low": "14.6500",
            "4. close": "14.7800",
            "5. volume": "144416"
        },
        "2020-10-28": {
            "1. open": "15.2500",
            "2. high": "15.9450",
            "3. low": "14.9201",
            "4. close": "15.1400",
            "5. volume": "139277"
        },
        "2020-10-27": {
            "1. open": "14.6500",
            "2. high": "15.8200",
            "3. low": "14.3000",
            "4. close": "15.5000",
            "5. volume": "274842"
        },
        "2020-10-26": {
            "1. open": "14.6200",
            "2. high": "14.9700",
            "3. low": "14.4501",
            "4. close": "14.8000",
            "5. volume": "131240"
        },
        "2020-10-23": {
            "1. open": "15.3800",
            "2. high": "15.3800",
            "3. low": "14.6200",
            "4. close": "15.1000",
            "5. volume": "196820"
        },
        "2020-10-22": {
            "1. open": "14.6500",
            "2. high": "15.4599",
            "3. low": "14.5100",
            "4. close": "15.0700",
            "5. volume": "328525"
        },
        "2020-10-21": {
            "1. open": "13.4200",
            "2. high": "15.0000",
            "3. low": "13.0400",
            "4. close": "14.9400",
            "5. volume": "323041"
        },
        "2020-10-20": {
            "1. open": "14.5300",
            "2. high": "14.9300",
            "3. low": "12.8200",
            "4. close": "13.2000",
            "5. volume": "645728"
        },
        "2020-10-19": {
            "1. open": "14.7400",
            "2. high": "14.9999",
            "3. low": "14.0000",
            "4. close": "14.7600",
            "5. volume": "342381"
        },
        "2020-10-16": {
            "1. open": "17.4000",
            "2. high": "17.5000",
            "3. low": "13.6300",
            "4. close": "14.8500",
            "5. volume": "2761351"
        }
    }
}