{
    "Meta Data": {
        "1. Information": "Daily Prices (open, high, low, close) and Volumes",
        "2. Symbol": "MBRX",
        "3. Last Refreshed": "2020-12-18",
        "4. Output Size": "Compact",
        "5. Time Zone": "US/Eastern"
    },
    "Time Series (Daily)": {
        "2020-12-18": {
            "1. open": "0.8011",
            "2. high": "0.8250",
            "3. low": "0.7900",
            "4. close": "0.7900",
            "5. volume": "617966"
        },
        "2020-12-17": {
            "1. open": "0.8200",
            "2. high": "0.8250",
            "3. low": "0.7711",
            "4. close": "0.7900",
            "5. volume": "869168"
        },
        "2020-12-16": {
            "1. open": "0.7989",
            "2. high": "0.7995",
            "3. low": "0.7700",
            "4. close": "0.7800",
            "5. volume": "438599"
        },
        "2020-12-15": {
            "1. open": "0.7900",
            "2. high": "0.7980",
            "3. low": "0.7602",
            "4. close": "0.7912",
            "5. volume": "617212"
        },
        "2020-12-14": {
            "1. open": "0.8000",
            "2. high": "0.8250",
            "3. low": "0.7650",
            "4. close": "0.7722",
            "5. volume": "1214534"
        },
        "2020-12-11": {
            "1. open": "0.8021",
            "2. high": "0.8370",
            "3. low": "0.8011",
            "4. close": "0.8100",
            "5. volume": "880716"
        },
        "2020-12-10": {
            "1. open": "0.7996",
            "2. high": "0.8251",
            "3. low": "0.7900",
            "4. close": "0.8060",
            "5. volume": "1072943"
        },
        "2020-12-09": {
            "1. open": "0.8350",
            "2. high": "0.8529",
            "3. low": "0.8000",
            "4. close": "0.8030",
            "5. volume": "917447"
        },
        "2020-12-08": {
            "1. open": "0.8100",
            "2. high": "0.8905",
            "3. low": "0.7900",
            "4. close": "0.8230",
            "5. volume": "2638330"
        },
        "2020-12-07": {
            "1. open": "0.8400",
            "2. high": "0.8510",
            "3. low": "0.8040",
            "4. close": "0.8200",
            "5. volume": "1448456"
        },
        "2020-12-04": {
            "1. open": "0.8410",
            "2. high": "0.8594",
            "3. low": "0.8301",
            "4. close": "0.8480",
            "5. volume": "803293"
        },
        "2020-12-03": {
            "1. open": "0.8667",
            "2. high": "0.8667",
            "3. low": "0.8107",
            "4. close": "0.8401",
            "5. volume": "1575771"
        },
        "2020-12-02": {
            "1. open": "0.9317",
            "2. high": "0.9500",
            "3. low": "0.8336",
            "4. close": "0.8414",
            "5. volume": "4824926"
        },
        "2020-12-01": {
            "1. open": "1.1000",
            "2. high": "1.2200",
            "3. low": "0.9200",
            "4. close": "0.9900",
            "5. volume": "50780655"
        },
        "2020-11-30": {
            "1. open": "0.7740",
            "2. high": "0.7815",
            "3. low": "0.7438",
            "4. close": "0.7800",
            "5. volume": "599287"
        },
        "2020-11-27": {
            "1. open": "0.7800",
            "2. high": "0.7800",
            "3. low": "0.7500",
            "4. close": "0.7740",
            "5. volume": "533164"
        },
        "2020-11-25": {
            "1. open": "0.7750",
            "2. high": "0.7788",
            "3. low": "0.7585",
            "4. close": "0.7780",
            "5. volume": "477106"
        },
        "2020-11-24": {
            "1. open": "0.7699",
            "2. high": "0.7820",
            "3. low": "0.7527",
            "4. close": "0.7750",
            "5. volume": "578119"
        },
        "2020-11-23": {
            "1. open": "0.8115",
            "2. high": "0.8317",
            "3. low": "0.7600",
            "4. close": "0.7880",
            "5. volume": "928549"
        },
        "2020-11-20": {
            "1. open": "0.8500",
            "2. high": "0.8500",
            "3. low": "0.8051",
            "4. close": "0.8286",
            "5. volume": "576335"
        },
        "2020-11-19": {
            "1. open": "0.8000",
            "2. high": "0.8490",
            "3. low": "0.7705",
            "4. close": "0.8399",
            "5. volume": "1025548"
        },
        "2020-11-18": {
            "1. open": "0.8000",
            "2. high": "0.8200",
            "3. low": "0.7600",
            "4. close": "0.7701",
            "5. volume": "625720"
        },
        "2020-11-17": {
            "1. open": "0.7500",
            "2. high": "0.8142",
            "3. low": "0.7110",
            "4. close": "0.7914",
            "5. volume": "1209708"
        },
        "2020-11-16": {
            "1. open": "0.7500",
            "2. high": "0.7500",
            "3. low": "0.7100",
            "4. close": "0.7303",
            "5. volume": "443191"
        },
        "2020-11-13": {
            "1. open": "0.7200",
            "2. high": "0.7700",
            "3. low": "0.7020",
            "4. close": "0.7690",
            "5. volume": "656544"
        },
        "2020-11-12": {
            "1. open": "0.7150",
            "2. high": "0.7200",
            "3. low": "0.7100",
            "4. close": "0.7100",
            "5. volume": "112257"
        },
        "2020-11-11": {
            "1. open": "0.7276",
            "2. high": "0.7293",
            "3. low": "0.7000",
            "4. close": "0.7149",
            "5. volume": "375210"
        },
        "2020-11-10": {
            "1. open": "0.7100",
            "2. high": "0.7300",
            "3. low": "0.6900",
            "4. close": "0.7275",
            "5. volume": "235720"
        },
        "2020-11-09": {
            "1. open": "0.7200",
            "2. high": "0.7263",
            "3. low": "0.6850",
            "4. close": "0.7000",
            "5. volume": "293661"
        },
        "2020-11-06": {
            "1. open": "0.6900",
            "2. high": "0.7200",
            "3. low": "0.6800",
            "4. close": "0.6961",
            "5. volume": "534806"
        },
        "2020-11-05": {
            "1. open": "0.7400",
            "2. high": "0.7484",
            "3. low": "0.6900",
            "4. close": "0.7093",
            "5. volume": "368906"
        },
        "2020-11-04": {
            "1. open": "0.7074",
            "2. high": "0.7257",
            "3. low": "0.6987",
            "4. close": "0.7257",
            "5. volume": "240423"
        },
        "2020-11-03": {
            "1. open": "0.6750",
            "2. high": "0.7100",
            "3. low": "0.6750",
            "4. close": "0.7065",
            "5. volume": "163037"
        },
        "2020-11-02": {
            "1. open": "0.6900",
            "2. high": "0.6999",
            "3. low": "0.6526",
            "4. close": "0.6783",
            "5. volume": "528454"
        },
        "2020-10-30": {
            "1. open": "0.7111",
            "2. high": "0.7200",
            "3. low": "0.6800",
            "4. close": "0.6909",
            "5. volume": "447085"
        },
        "2020-10-29": {
            "1. open": "0.7000",
            "2. high": "0.7500",
            "3. low": "0.7000",
            "4. close": "0.7199",
            "5. volume": "593358"
        },
        "2020-10-28": {
            "1. open": "0.7209",
            "2. high": "0.7499",
            "3. low": "0.7001",
            "4. close": "0.7200",
            "5. volume": "479478"
        },
        "2020-10-27": {
            "1. open": "0.7500",
            "2. high": "0.7500",
            "3. low": "0.7132",
            "4. close": "0.7300",
            "5. volume": "156007"
        },
        "2020-10-26": {
            "1. open": "0.7572",
            "2. high": "0.7597",
            "3. low": "0.7100",
            "4. close": "0.7298",
            "5. volume": "501279"
        },
        "2020-10-23": {
            "1. open": "0.7700",
            "2. high": "0.7758",
            "3. low": "0.7411",
            "4. close": "0.7638",
            "5. volume": "248270"
        },
        "2020-10-22": {
            "1. open": "0.7600",
            "2. high": "0.7800",
            "3. low": "0.7530",
            "4. close": "0.7686",
            "5. volume": "213565"
        },
        "2020-10-21": {
            "1. open": "0.7680",
            "2. high": "0.7973",
            "3. low": "0.7660",
            "4. close": "0.7708",
            "5. volume": "525484"
        },
        "2020-10-20": {
            "1. open": "0.8103",
            "2. high": "0.8103",
            "3. low": "0.7650",
            "4. close": "0.7899",
            "5. volume": "391709"
        },
        "2020-10-19": {
            "1. open": "0.8100",
            "2. high": "0.8191",
            "3. low": "0.7855",
            "4. close": "0.8100",
            "5. volume": "371377"
        },
        "2020-10-16": {
            "1. open": "0.8148",
            "2. high": "0.8198",
            "3. low": "0.8000",
            "4. close": "0.8176",
            "5. volume": "296719"
        },
        "2020-10-15": {
            "1. open": "0.8100",
            "2. high": "0.8195",
            "3. low": "0.8028",
            "4. close": "0.8100",
            "5. volume": "258713"
        },
        "2020-10-14": {
            "1. open": "0.8300",
            "2. high": "0.8300",
            "3. low": "0.8100",
            "4. close": "0.8129",
            "5. volume": "349517"
        },
        "2020-10-13": {
            "1. open": "0.8300",
            "2. high": "0.8300",
            "3. low": "0.8114",
            "4. close": "0.8290",
            "5. volume": "494992"
        },
        "2020-10-12": {
            "1. open": "0.8325",
            "2. high": "0.8400",
            "3. low": "0.8104",
            "4. close": "0.8258",
            "5. volume": "224725"
        },
        "2020-10-09": {
            "1. open": "0.8400",
            "2. high": "0.8600",
            "3. low": "0.8300",
            "4. close": "0.8335",
            "5. volume": "280189"
        },
        "2020-10-08": {
            "1. open": "0.8200",
            "2. high": "0.8448",
            "3. low": "0.8150",
            "4. close": "0.8400",
            "5. volume": "339874"
        },
        "2020-10-07": {
            "1. open": "0.8028",
            "2. high": "0.8300",
            "3. low": "0.8000",
            "4. close": "0.8258",
            "5. volume": "356370"
        },
        "2020-10-06": {
            "1. open": "0.8800",
            "2. high": "0.8900",
            "3. low": "0.8105",
            "4. close": "0.8120",
            "5. volume": "934642"
        },
        "2020-10-05": {
            "1. open": "0.8104",
            "2. high": "0.8190",
            "3. low": "0.8011",
            "4. close": "0.8104",
            "5. volume": "250076"
        },
        "2020-10-02": {
            "1. open": "0.8175",
            "2. high": "0.8197",
            "3. low": "0.7910",
            "4. close": "0.8087",
            "5. volume": "344820"
        },
        "2020-10-01": {
            "1. open": "0.8401",
            "2. high": "0.8670",
            "3. low": "0.8200",
            "4. close": "0.8300",
            "5. volume": "984851"
        },
        "2020-09-30": {
            "1. open": "0.7900",
            "2. high": "0.8200",
            "3. low": "0.7900",
            "4. close": "0.8127",
            "5. volume": "254101"
        },
        "2020-09-29": {
            "1. open": "0.8568",
            "2. high": "0.9000",
            "3. low": "0.7800",
            "4. close": "0.8000",
            "5. volume": "1422318"
        },
        "2020-09-28": {
            "1. open": "0.8000",
            "2. high": "0.8010",
            "3. low": "0.7700",
            "4. close": "0.7998",
            "5. volume": "267385"
        },
        "2020-09-25": {
            "1. open": "0.7900",
            "2. high": "0.8100",
            "3. low": "0.7720",
            "4. close": "0.8037",
            "5. volume": "207798"
        },
        "2020-09-24": {
            "1. open": "0.8250",
            "2. high": "0.8267",
            "3. low": "0.7523",
            "4. close": "0.7795",
            "5. volume": "273278"
        },
        "2020-09-23": {
            "1. open": "0.7600",
            "2. high": "0.8250",
            "3. low": "0.7600",
            "4. close": "0.8200",
            "5. volume": "288304"
        },
        "2020-09-22": {
            "1. open": "0.8000",
            "2. high": "0.8300",
            "3. low": "0.7700",
            "4. close": "0.7900",
            "5. volume": "329720"
        },
        "2020-09-21": {
            "1. open": "0.8758",
            "2. high": "0.8790",
            "3. low": "0.8050",
            "4. close": "0.8100",
            "5. volume": "598702"
        },
        "2020-09-18": {
            "1. open": "0.8050",
            "2. high": "0.9000",
            "3. low": "0.8050",
            "4. close": "0.8900",
            "5. volume": "727825"
        },
        "2020-09-17": {
            "1. open": "0.7800",
            "2. high": "0.8100",
            "3. low": "0.7700",
            "4. close": "0.8100",
            "5. volume": "165526"
        },
        "2020-09-16": {
            "1. open": "0.8000",
            "2. high": "0.8170",
            "3. low": "0.7900",
            "4. close": "0.7934",
            "5. volume": "209808"
        },
        "2020-09-15": {
            "1. open": "0.7981",
            "2. high": "0.8200",
            "3. low": "0.7817",
            "4. close": "0.8140",
            "5. volume": "405016"
        },
        "2020-09-14": {
            "1. open": "0.7710",
            "2. high": "0.8175",
            "3. low": "0.7400",
            "4. close": "0.8000",
            "5. volume": "1045624"
        },
        "2020-09-11": {
            "1. open": "0.7801",
            "2. high": "0.7921",
            "3. low": "0.7500",
            "4. close": "0.7596",
            "5. volume": "327834"
        },
        "2020-09-10": {
            "1. open": "0.7500",
            "2. high": "0.7850",
            "3. low": "0.7500",
            "4. close": "0.7725",
            "5. volume": "352101"
        },
        "2020-09-09": {
            "1. open": "0.8400",
            "2. high": "0.8476",
            "3. low": "0.7400",
            "4. close": "0.7583",
            "5. volume": "1339935"
        },
        "2020-09-08": {
            "1. open": "0.7500",
            "2. high": "0.7701",
            "3. low": "0.7200",
            "4. close": "0.7509",
            "5. volume": "464318"
        },
        "2020-09-04": {
            "1. open": "0.8000",
            "2. high": "0.8084",
            "3. low": "0.7200",
            "4. close": "0.7679",
            "5. volume": "1289176"
        },
        "2020-09-03": {
            "1. open": "0.8100",
            "2. high": "0.8400",
            "3. low": "0.8000",
            "4. close": "0.8048",
            "5. volume": "504938"
        },
        "2020-09-02": {
            "1. open": "0.8200",
            "2. high": "0.8400",
            "3. low": "0.8100",
            "4. close": "0.8352",
            "5. volume": "978631"
        },
        "2020-09-01": {
            "1. open": "0.8400",
            "2. high": "0.8600",
            "3. low": "0.8200",
            "4. close": "0.8339",
            "5. volume": "730256"
        },
        "2020-08-31": {
            "1. open": "0.8800",
            "2. high": "0.8900",
            "3. low": "0.8550",
            "4. close": "0.8768",
            "5. volume": "287911"
        },
        "2020-08-28": {
            "1. open": "0.8400",
            "2. high": "0.8897",
            "3. low": "0.8210",
            "4. close": "0.8897",
            "5. volume": "546469"
        },
        "2020-08-27": {
            "1. open": "0.8800",
            "2. high": "0.8908",
            "3. low": "0.8300",
            "4. close": "0.8500",
            "5. volume": "851524"
        },
        "2020-08-26": {
            "1. open": "0.9000",
            "2. high": "0.9100",
            "3. low": "0.8800",
            "4. close": "0.8916",
            "5. volume": "344682"
        },
        "2020-08-25": {
            "1. open": "0.8700",
            "2. high": "0.8984",
            "3. low": "0.8500",
            "4. close": "0.8900",
            "5. volume": "616553"
        },
        "2020-08-24": {
            "1. open": "0.9238",
            "2. high": "0.9250",
            "3. low": "0.8600",
            "4. close": "0.8800",
            "5. volume": "1018337"
        },
        "2020-08-21": {
            "1. open": "0.9500",
            "2. high": "0.9599",
            "3. low": "0.9050",
            "4. close": "0.9189",
            "5. volume": "970245"
        },
        "2020-08-20": {
            "1. open": "0.9600",
            "2. high": "0.9800",
            "3. low": "0.9502",
            "4. close": "0.9590",
            "5. volume": "454727"
        },
        "2020-08-19": {
            "1. open": "0.9650",
            "2. high": "0.9900",
            "3. low": "0.9500",
            "4. close": "0.9895",
            "5. volume": "580793"
        },
        "2020-08-18": {
            "1. open": "1.0100",
            "2. high": "1.0200",
            "3. low": "0.9658",
            "4. close": "0.9712",
            "5. volume": "596473"
        },
        "2020-08-17": {
            "1. open": "0.9800",
            "2. high": "1.0100",
            "3. low": "0.9700",
            "4. close": "1.0100",
            "5. volume": "608323"
        },
        "2020-08-14": {
            "1. open": "0.9991",
            "2. high": "1.0050",
            "3. low": "0.9700",
            "4. close": "0.9848",
            "5. volume": "632668"
        },
        "2020-08-13": {
            "1. open": "0.9932",
            "2. high": "1.0100",
            "3. low": "0.9700",
            "4. close": "0.9903",
            "5. volume": "702924"
        },
        "2020-08-12": {
            "1. open": "1.0500",
            "2. high": "1.0600",
            "3. low": "0.9500",
            "4. close": "0.9849",
            "5. volume": "2837564"
        },
        "2020-08-11": {
            "1. open": "1.0900",
            "2. high": "1.0900",
            "3. low": "1.0600",
            "4. close": "1.0700",
            "5. volume": "1191073"
        },
        "2020-08-10": {
            "1. open": "1.0800",
            "2. high": "1.1100",
            "3. low": "1.0800",
            "4. close": "1.0900",
            "5. volume": "799266"
        },
        "2020-08-07": {
            "1. open": "1.0800",
            "2. high": "1.0900",
            "3. low": "1.0700",
            "4. close": "1.0800",
            "5. volume": "1038000"
        },
        "2020-08-06": {
            "1. open": "1.1100",
            "2. high": "1.1300",
            "3. low": "1.0900",
            "4. close": "1.1100",
            "5. volume": "653410"
        },
        "2020-08-05": {
            "1. open": "1.1400",
            "2. high": "1.1500",
            "3. low": "1.0900",
            "4. close": "1.1200",
            "5. volume": "1110520"
        },
        "2020-08-04": {
            "1. open": "1.1000",
            "2. high": "1.1500",
            "3. low": "1.1000",
            "4. close": "1.1500",
            "5. volume": "1202012"
        },
        "2020-08-03": {
            "1. open": "1.1300",
            "2. high": "1.1400",
            "3. low": "1.1000",
            "4. close": "1.1100",
            "5. volume": "1029146"
        },
        "2020-07-31": {
            "1. open": "1.1100",
            "2. high": "1.1600",
            "3. low": "1.0800",
            "4. close": "1.1500",
            "5. volume": "1671169"
        },
        "2020-07-30": {
            "1. open": "1.0900",
            "2. high": "1.1300",
            "3. low": "1.0900",
            "4. close": "1.1200",
            "5. volume": "1270623"
        }
    }
}